{
   "resource-list":[
      {
         "product":{
            "id":1517,
            "category":"Doll",
            "name":"Glitter Girls",
            "ageRange":"36 months - 12 years",
            "price":17.05
         }
      },
      {
         "product":{
            "id":3913,
            "category":"Doll",
            "name":"Baby Alive Luv 'n Snuggle",
            "ageRange":"Over 18 months and up",
            "price":12.61
         }
      }
   ]
}